{
    "/js/app.js": "/js/app.js",
    "/css/app.css": "/css/app.css",
    "/images/bg-01.jpg": "/images/bg-01.jpg",
    "/images/bg-masthead.jpg": "/images/bg-masthead.jpg",
    "/images/bg-signup.jpg": "/images/bg-signup.jpg",
    "/images/demo-image-01.jpg": "/images/demo-image-01.jpg",
    "/images/demo-image-02.jpg": "/images/demo-image-02.jpg",
    "/images/favicon.ico": "/images/favicon.ico",
    "/images/ipad.png": "/images/ipad.png",
    "/fonts/Montserrat-Bold.ttf": "/fonts/Montserrat-Bold.ttf",
    "/fonts/Poppins-Bold.ttf": "/fonts/Poppins-Bold.ttf",
    "/fonts/Poppins-Light.ttf": "/fonts/Poppins-Light.ttf",
    "/fonts/Poppins-Medium.ttf": "/fonts/Poppins-Medium.ttf",
    "/fonts/Poppins-Regular.ttf": "/fonts/Poppins-Regular.ttf",
    "/fonts/Poppins-SemiBold.ttf": "/fonts/Poppins-SemiBold.ttf",
    "/js/myscripts/sb-admin-2.min.js": "/js/myscripts/sb-admin-2.min.js",
    "/js/myscripts/scriptMain.js": "/js/myscripts/scriptMain.js"
}
